simulation/qsim/braindrop.msim.vcd
$comment
	File created using the following command:
		vcd file braindrop.msim.vcd -direction
$end
$date
	Fri Jul 21 14:48:55 2017
$end
$version
	ModelSim Version 10.5b
$end
$timescale
	1ps
$end

$scope module braindrop_vlg_vec_tst $end
$var reg 1 ! I1 $end
$var reg 1 " I2 $end
$var wire 1 # O1 $end

$scope module i1 $end
$var wire 1 $ gnd $end
$var wire 1 % vcc $end
$var wire 1 & unknown $end
$var tri1 1 ' devclrn $end
$var tri1 1 ( devpor $end
$var tri1 1 ) devoe $end
$var wire 1 * ~ALTERA_DATA0~~padout $end
$var wire 1 + ~ALTERA_DATA0~~ibuf_o $end
$var wire 1 , O1~output_o $end
$var wire 1 - I2~input_o $end
$var wire 1 . I1~input_o $end
$var wire 1 / O1~0_combout $end
$upscope $end
$upscope $end
$enddefinitions $end
#0
$dumpvars
0!
0"
0#
0$
1%
x&
1'
1(
1)
z*
z+
0,
0-
0.
0/
$end
#10000
1!
1.
1/
1,
1#
#15000
1"
1-
#20000
0!
0.
#30000
0"
1!
0-
1.
#40000
0!
0.
0/
0,
0#
#45000
1"
1-
1/
1,
1#
#50000
1!
1.
#60000
0"
0!
0-
0.
0/
0,
0#
#70000
1!
1.
1/
1,
1#
#75000
1"
1-
#80000
0!
0.
#90000
0"
1!
0-
1.
#100000
0!
0.
0/
0,
0#
#105000
1"
1-
1/
1,
1#
#110000
1!
1.
#120000
0"
0!
0-
0.
0/
0,
0#
#130000
1!
1.
1/
1,
1#
#135000
1"
1-
#140000
0!
0.
#150000
0"
1!
0-
1.
#160000
0!
0.
0/
0,
0#
#165000
1"
1-
1/
1,
1#
#170000
1!
1.
#180000
0"
0!
0-
0.
0/
0,
0#
#190000
1!
1.
1/
1,
1#
#195000
1"
1-
#200000
0!
0.
#210000
0"
1!
0-
1.
#220000
0!
0.
0/
0,
0#
#225000
1"
1-
1/
1,
1#
#230000
1!
1.
#240000
0"
0!
0-
0.
0/
0,
0#
#250000
1!
1.
1/
1,
1#
#255000
1"
1-
#260000
0!
0.
#270000
0"
1!
0-
1.
#280000
0!
0.
0/
0,
0#
#285000
1"
1-
1/
1,
1#
#290000
1!
1.
#300000
0"
0!
0-
0.
0/
0,
0#
#310000
1!
1.
1/
1,
1#
#315000
1"
1-
#320000
0!
0.
#330000
0"
1!
0-
1.
#340000
0!
0.
0/
0,
0#
#345000
1"
1-
1/
1,
1#
#350000
1!
1.
#360000
0"
0!
0-
0.
0/
0,
0#
#370000
1!
1.
1/
1,
1#
#375000
1"
1-
#380000
0!
0.
#390000
0"
1!
0-
1.
#400000
0!
0.
0/
0,
0#
#405000
1"
1-
1/
1,
1#
#410000
1!
1.
#420000
0"
0!
0-
0.
0/
0,
0#
#430000
1!
1.
1/
1,
1#
#435000
1"
1-
#440000
0!
0.
#450000
0"
1!
0-
1.
#460000
0!
0.
0/
0,
0#
#465000
1"
1-
1/
1,
1#
#470000
1!
1.
#480000
0"
0!
0-
0.
0/
0,
0#
#490000
1!
1.
1/
1,
1#
#495000
1"
1-
#500000
0!
0.
#510000
0"
1!
0-
1.
#520000
0!
0.
0/
0,
0#
#525000
1"
1-
1/
1,
1#
#530000
1!
1.
#540000
0"
0!
0-
0.
0/
0,
0#
#550000
1!
1.
1/
1,
1#
#555000
1"
1-
#560000
0!
0.
#570000
0"
1!
0-
1.
#580000
0!
0.
0/
0,
0#
#585000
1"
1-
1/
1,
1#
#590000
1!
1.
#600000
0"
0!
0-
0.
0/
0,
0#
#610000
1!
1.
1/
1,
1#
#615000
1"
1-
#620000
0!
0.
#630000
0"
1!
0-
1.
#640000
0!
0.
0/
0,
0#
#645000
1"
1-
1/
1,
1#
#650000
1!
1.
#660000
0"
0!
0-
0.
0/
0,
0#
#670000
1!
1.
1/
1,
1#
#675000
1"
1-
#680000
0!
0.
#690000
0"
1!
0-
1.
#700000
0!
0.
0/
0,
0#
#705000
1"
1-
1/
1,
1#
#710000
1!
1.
#720000
0"
0!
0-
0.
0/
0,
0#
#730000
1!
1.
1/
1,
1#
#735000
1"
1-
#740000
0!
0.
#750000
0"
1!
0-
1.
#760000
0!
0.
0/
0,
0#
#765000
1"
1-
1/
1,
1#
#770000
1!
1.
#780000
0"
0!
0-
0.
0/
0,
0#
#790000
1!
1.
1/
1,
1#
#795000
1"
1-
#800000
0!
0.
#810000
0"
1!
0-
1.
#820000
0!
0.
0/
0,
0#
#825000
1"
1-
1/
1,
1#
#830000
1!
1.
#840000
0"
0!
0-
0.
0/
0,
0#
#850000
1!
1.
1/
1,
1#
#855000
1"
1-
#860000
0!
0.
#870000
0"
1!
0-
1.
#880000
0!
0.
0/
0,
0#
#885000
1"
1-
1/
1,
1#
#890000
1!
1.
#900000
0"
0!
0-
0.
0/
0,
0#
#910000
1!
1.
1/
1,
1#
#915000
1"
1-
#920000
0!
0.
#930000
0"
1!
0-
1.
#940000
0!
0.
0/
0,
0#
#945000
1"
1-
1/
1,
1#
#950000
1!
1.
#960000
0"
0!
0-
0.
0/
0,
0#
#970000
1!
1.
1/
1,
1#
#975000
1"
1-
#980000
0!
0.
#990000
0"
1!
0-
1.
